Hello World in Spiral. No comment character exists.

e0v ***   *eXlv**   *lX      *2X       **oXi
v * * *   *     *   * 2      * o      **   v*
* * * *   * *****   * v      * v      * *iX *
* * * *   * *       * ^      v *      * * w *
* *** *   * *****   * v      * *      * * v *
*     *   *     ^   * ^      * *      * * * *
* *** *   * ****v   * v      * *      v * * *
* * * *   * *       * *      * *      ^ * * *
* * * *   * *****   * *****  * *****  * *** *
* * * *   *     *   *     *  *     *  **   **
*** ***   *******   *****v^  *******   *****

*wX ***    **3Xp    *rX4..   d5*      qd**  
* 3 * *   **   v^   *    ..  * *      *  ***
* v * ^   * #pX v   * ..  .  * *      *    **
* *** v   * # r #   * ..  .  * *      * !q* *
* * * *   * # v #   * 54 ..  * *      * * * *
* * * *   * # * #   *   @X   * *      * * * *
* * * *   * # * #   *   v    * *      * * * *
* * * *   * # * #   * * **   * *      * * * *
*  *  *   * # * #   * ** **  * *      * *** *
*  *  *   * #v* ^   * *** *  * *****  *    **
** * **   **   *v   * * * *  *     *  *  ***
 *****     *v^**    *** ***  *******  **** 
